%YAML 1.1
%TAG !u! tag:unity3d.com,2011:
--- !u!21 &2100000
Material:
  serializedVersion: 6
  m_ObjectHideFlags: 0
  m_PrefabParentObject: {fileID: 0}
  m_PrefabInternal: {fileID: 0}
  m_Name: HumanMIceArcherMainMat
  m_Shader: {fileID: 4800000, guid: d84268709d11078d11005b9844295342, type: 3}
  m_ShaderKeywords: OUTLINES TCP2_DISABLE_WRAPPED_LIGHT TCP2_ZSMOOTH_ON _EMISSION
  m_LightmapFlags: 4
  m_EnableInstancingVariants: 1
  m_DoubleSidedGI: 0
  m_CustomRenderQueue: -1
  stringTagMap: {}
  disabledShaderPasses: []
  m_SavedProperties:
    serializedVersion: 3
    m_TexEnvs:
    - _BumpMap:
        m_Texture: {fileID: 0}
        m_Scale: {x: 1, y: 1}
        m_Offset: {x: 0, y: 0}
    - _DetailAlbedoMap:
        m_Texture: {fileID: 0}
        m_Scale: {x: 1, y: 1}
        m_Offset: {x: 0, y: 0}
    - _DetailMask:
        m_Texture: {fileID: 0}
        m_Scale: {x: 1, y: 1}
        m_Offset: {x: 0, y: 0}
    - _DetailNormalMap:
        m_Texture: {fileID: 0}
        m_Scale: {x: 1, y: 1}
        m_Offset: {x: 0, y: 0}
    - _EmissionMap:
        m_Texture: {fileID: 0}
        m_Scale: {x: 1, y: 1}
        m_Offset: {x: 0, y: 0}
    - _MainTex:
        m_Texture: {fileID: 2800000, guid: ed3a1a5505ebf4da9b99ab3761722de6, type: 3}
        m_Scale: {x: 1, y: 1}
        m_Offset: {x: 0, y: 0}
    - _MetallicGlossMap:
        m_Texture: {fileID: 0}
        m_Scale: {x: 1, y: 1}
        m_Offset: {x: 0, y: 0}
    - _OcclusionMap:
        m_Texture: {fileID: 0}
        m_Scale: {x: 1, y: 1}
        m_Offset: {x: 0, y: 0}
    - _ParallaxMap:
        m_Texture: {fileID: 0}
        m_Scale: {x: 1, y: 1}
        m_Offset: {x: 0, y: 0}
    - _Ramp:
        m_Texture: {fileID: 2800000, guid: 948e1b7327c293a4081ba3c18eaab19f, type: 3}
        m_Scale: {x: 1, y: 1}
        m_Offset: {x: 0, y: 0}
    - _ToonShade:
        m_Texture: {fileID: 0}
        m_Scale: {x: 1, y: 1}
        m_Offset: {x: 0, y: 0}
    m_Floats:
    - _BumpScale: 1
    - _Cutoff: 0.5
    - _DetailNormalMapScale: 1
    - _DstBlend: 0
    - _GlossMapScale: 1
    - _Glossiness: 0.5
    - _GlossyReflections: 1
    - _LightSmoothness: 0
    - _LightThreshold: 1
    - _MKEditorShowDetailBehavior: 0
    - _MKEditorShowDissolveBehavior: 0
    - _MKEditorShowLightBehavior: 1
    - _MKEditorShowMainBehavior: 1
    - _MKEditorShowOutlineBehavior: 0
    - _MKEditorShowReflectionBehavior: 0
    - _MKEditorShowRenderBehavior: 1
    - _MKEditorShowRimBehavior: 0
    - _MKEditorShowShadowBehavior: 1
    - _MKEditorShowSketchBehavior: 0
    - _MKEditorShowSpecularBehavior: 0
    - _MKEditorShowTranslucentBehavior: 0
    - _Metallic: 0
    - _Mode: 0
    - _OcclusionStrength: 1
    - _Offset1: 0
    - _Offset2: 0
    - _Outline: 1
    - _OutlineSize: 0.02
    - _Parallax: 0.02
    - _RampSmooth: 0.1
    - _RampSmoothAdd: 0.75
    - _RampThreshold: 0.5
    - _RimIntensity: 0.5
    - _RimMax: 0.85
    - _RimMin: 0.6
    - _RimSize: 1.5
    - _RimSmoothness: 0.5
    - _RimStrength: 0.5
    - _ShadowIntensity: 0.14
    - _Shininess: 0.275
    - _SmoothnessTextureChannel: 0
    - _SpecBlend: 1
    - _SpecSmooth: 0.05
    - _SpecularHighlights: 1
    - _SpecularIntensity: 0.5
    - _SrcBlend: 1
    - _TCP2_DISABLE_WRAPPED_LIGHT: 1
    - _TCP2_OUTLINE_CONST_SIZE: 0
    - _TCP2_OUTLINE_TEXTURED: 0
    - _TCP2_RAMPTEXT: 0
    - _TCP2_SPEC_TOON: 0
    - _TCP2_STYLIZED_FRESNEL: 0
    - _TCP2_ZSMOOTH_ON: 0
    - _TexLod: 5
    - _UVSec: 0
    - _ZSmooth: -0.5
    - _ZWrite: 1
    m_Colors:
    - _Color: {r: 0.8897059, g: 0.8897059, b: 0.8897059, a: 1}
    - _EmissionColor: {r: 0.41911763, g: 0.41911763, b: 0.41911763, a: 1}
    - _HColor: {r: 1, g: 1, b: 1, a: 1}
    - _HighlightColor: {r: 1, g: 1, b: 1, a: 1}
    - _OutlineColor: {r: 0, g: 0, b: 0, a: 1}
    - _RimColor: {r: 1, g: 1, b: 1, a: 1}
    - _SColor: {r: 0, g: 0, b: 0, a: 0.19607843}
    - _ShadowColor: {r: 0.25, g: 0.25, b: 0.25, a: 0.5}
    - _SpecColor: {r: 1, g: 1, b: 1, a: 0.5}
