%YAML 1.1
%TAG !u! tag:unity3d.com,2011:
--- !u!21 &2100000
Material:
  serializedVersion: 6
  m_ObjectHideFlags: 0
  m_PrefabParentObject: {fileID: 0}
  m_PrefabInternal: {fileID: 0}
  m_Name: ConeDeco1
  m_Shader: {fileID: 4800000, guid: db2caf5abde51a7498704ee94a797058, type: 3}
  m_ShaderKeywords: 
  m_LightmapFlags: 5
  m_EnableInstancingVariants: 0
  m_DoubleSidedGI: 0
  m_CustomRenderQueue: -1
  stringTagMap: {}
  disabledShaderPasses: []
  m_SavedProperties:
    serializedVersion: 3
    m_TexEnvs:
    - _DistortTex:
        m_Texture: {fileID: 2800000, guid: 001017bff094ea04c95b12a62ee3cc06, type: 3}
        m_Scale: {x: 1, y: 1}
        m_Offset: {x: 0, y: 0}
    - _FalloffTex:
        m_Texture: {fileID: 2800000, guid: 7edb130fa6e61b34c8247c3bd2d5716e, type: 3}
        m_Scale: {x: 1, y: 1}
        m_Offset: {x: 0, y: 0}
    - _MainTex:
        m_Texture: {fileID: 2800000, guid: abfde10441212824fa9680fdc9a7bca6, type: 3}
        m_Scale: {x: 1, y: 1}
        m_Offset: {x: 0, y: 0}
    - _ProjectTex:
        m_Texture: {fileID: 2800000, guid: abfde10441212824fa9680fdc9a7bca6, type: 3}
        m_Scale: {x: 1, y: 1}
        m_Offset: {x: 0, y: 0}
    - _ShadowTex:
        m_Texture: {fileID: 2800000, guid: 996957aad7bfbc04fb720a555ccd5f5c, type: 3}
        m_Scale: {x: 1, y: 1}
        m_Offset: {x: 0, y: 0}
    m_Floats:
    - _DistortX: 0.005
    - _DistortY: 0.01
    - _Expand: 0.25
    - _ExpandAmount: 0.485
    - _Fill: 0
    - _FillAmount: 0
    - _InvFade: 1
    - _OffsetX: 0
    - _OffsetY: 0.8139872
    - _Rotation: 0
    m_Colors:
    - _Color: {r: 0.5661765, g: 0.9281947, b: 1, a: 1}
    - _FillColor: {r: 1, g: 1, b: 1, a: 1}
    - _MainColor: {r: 0, g: 0.83448267, b: 1, a: 1}
    - _SecondaryColor: {r: 0, g: 1, b: 0.6689656, a: 1}
    - _Tint: {r: 0, g: 0.5019608, b: 1, a: 0}
    - _TintColor: {r: 0.5, g: 0.5, b: 0.5, a: 0.5}
